SETTLEMENTDATE,TOTALDEMAND
1/07/2014 1:00,5423.33
1/07/2014 2:00,5045.64
1/07/2014 3:00,4748.45
1/07/2014 4:00,4576.76
1/07/2014 5:00,4613.99
1/07/2014 6:00,5060.56
1/07/2014 7:00,6016.34
1/07/2014 8:00,6514.83
1/07/2014 9:00,6789.86
1/07/2014 10:00,6829.96
1/07/2014 11:00,6720.61
1/07/2014 12:00,6710.67
1/07/2014 13:00,6681.98
1/07/2014 14:00,6751.65
1/07/2014 15:00,6733.38
1/07/2014 16:00,6723.41
1/07/2014 17:00,6889.35
1/07/2014 18:00,7372.92
1/07/2014 19:00,7124.9
1/07/2014 20:00,6814.78
1/07/2014 21:00,6476.98
1/07/2014 22:00,6025.82
1/07/2014 23:00,5693.31
2/07/2014 0:00,5953.04
2/07/2014 1:00,5455.11
2/07/2014 2:00,5031.15
2/07/2014 3:00,4709.85
2/07/2014 4:00,4601.83
2/07/2014 5:00,4660.71
2/07/2014 6:00,5021.3
2/07/2014 7:00,5899.69
2/07/2014 8:00,6389.03
2/07/2014 9:00,6666.82
2/07/2014 10:00,6588.93
2/07/2014 11:00,6328.94
2/07/2014 12:00,6192.5
2/07/2014 13:00,6053.9
2/07/2014 14:00,6156.28
2/07/2014 15:00,6187.23
2/07/2014 16:00,6288.63
2/07/2014 17:00,6511.09
2/07/2014 18:00,7052.77
2/07/2014 19:00,6934.31
2/07/2014 20:00,6590.27
2/07/2014 21:00,6257.69
2/07/2014 22:00,5880.65
2/07/2014 23:00,5574.29
3/07/2014 0:00,5879.98
3/07/2014 1:00,5397.23
3/07/2014 2:00,4933.93
3/07/2014 3:00,4630.35
3/07/2014 4:00,4513.05
3/07/2014 5:00,4439.43
3/07/2014 6:00,4850.25
3/07/2014 7:00,5741.95
3/07/2014 8:00,6272.55
3/07/2014 9:00,6526.31
3/07/2014 10:00,6372.12
3/07/2014 11:00,6118.68
3/07/2014 12:00,5963.52
3/07/2014 13:00,5833.31
3/07/2014 14:00,5874.09
3/07/2014 15:00,5841.99
3/07/2014 16:00,5988.27
3/07/2014 17:00,6302.63
3/07/2014 18:00,7115.45
3/07/2014 19:00,7024.95
3/07/2014 20:00,6708.37
3/07/2014 21:00,6365.2
3/07/2014 22:00,5879.38
3/07/2014 23:00,5442.01
4/07/2014 0:00,5713.69
4/07/2014 1:00,5182.15
4/07/2014 2:00,4804.22
4/07/2014 3:00,4516.93
4/07/2014 4:00,4355.52
4/07/2014 5:00,4458.05
4/07/2014 6:00,4906.63
4/07/2014 7:00,5672.01
4/07/2014 8:00,6318.64
4/07/2014 9:00,6617.39
4/07/2014 10:00,6596.3
4/07/2014 11:00,6415.7
4/07/2014 12:00,6412.34
4/07/2014 13:00,6264.67
4/07/2014 14:00,6273.51
4/07/2014 15:00,6045.03
4/07/2014 16:00,6079.96
4/07/2014 17:00,6402.26
4/07/2014 18:00,6962.78
4/07/2014 19:00,6818.1
4/07/2014 20:00,6508.76
4/07/2014 21:00,6218.39
4/07/2014 22:00,5774.04
4/07/2014 23:00,5550.93
5/07/2014 0:00,5873.75
5/07/2014 1:00,5353.78
5/07/2014 2:00,4830.53
5/07/2014 3:00,4500.97
5/07/2014 4:00,4382.84
5/07/2014 5:00,4308.04
5/07/2014 6:00,4381.4
5/07/2014 7:00,4715.65
5/07/2014 8:00,4942.37
5/07/2014 9:00,5425.02
5/07/2014 10:00,5598.65
5/07/2014 11:00,5602.45
5/07/2014 12:00,5500.56
5/07/2014 13:00,5402.43
5/07/2014 14:00,5388.74
5/07/2014 15:00,5282
5/07/2014 16:00,5359.26
5/07/2014 17:00,5636.38
5/07/2014 18:00,6184.94
5/07/2014 19:00,6082.35
5/07/2014 20:00,5816.47
5/07/2014 21:00,5558.44
5/07/2014 22:00,5320.7
5/07/2014 23:00,5210.71
6/07/2014 0:00,5555.17
6/07/2014 1:00,5158.81
6/07/2014 2:00,4716.53
6/07/2014 3:00,4372.99
6/07/2014 4:00,4210.82
6/07/2014 5:00,4155.08
6/07/2014 6:00,4216.66
6/07/2014 7:00,4535.26
6/07/2014 8:00,4696.81
6/07/2014 9:00,5128.49
6/07/2014 10:00,5372.89
6/07/2014 11:00,5481.23
6/07/2014 12:00,5390.81
6/07/2014 13:00,5329.93
6/07/2014 14:00,5317.68
6/07/2014 15:00,5338.73
6/07/2014 16:00,5481.55
6/07/2014 17:00,5900.77
6/07/2014 18:00,6435.93
6/07/2014 19:00,6382.73
6/07/2014 20:00,6188.72
6/07/2014 21:00,5980.93
6/07/2014 22:00,5688.05
6/07/2014 23:00,5482.2
7/07/2014 0:00,5773.83
7/07/2014 1:00,5325.3
7/07/2014 2:00,4893.48
7/07/2014 3:00,4599.08
7/07/2014 4:00,4474.92
7/07/2014 5:00,4526.39
7/07/2014 6:00,4906.3
7/07/2014 7:00,5792.54
7/07/2014 8:00,6402.15
7/07/2014 9:00,6742.86
7/07/2014 10:00,6614.64
7/07/2014 11:00,6321.07
7/07/2014 12:00,6113.63
7/07/2014 13:00,5987.61
7/07/2014 14:00,5963.64
7/07/2014 15:00,5963.86
7/07/2014 16:00,6188.08
7/07/2014 17:00,6490.33
7/07/2014 18:00,7104.68
7/07/2014 19:00,6886.93
7/07/2014 20:00,6616.76
7/07/2014 21:00,6238.08
7/07/2014 22:00,5747.53
7/07/2014 23:00,5437.88
8/07/2014 0:00,5736.38
8/07/2014 1:00,5182.31
8/07/2014 2:00,4733.48
8/07/2014 3:00,4444.02
8/07/2014 4:00,4301.43
8/07/2014 5:00,4355.2
8/07/2014 6:00,4737.88
8/07/2014 7:00,5588.15
8/07/2014 8:00,6221.35
8/07/2014 9:00,6512.96
8/07/2014 10:00,6474.1
8/07/2014 11:00,6205.81
8/07/2014 12:00,5898.29
8/07/2014 13:00,5761.74
8/07/2014 14:00,5771.42
8/07/2014 15:00,5752.39
8/07/2014 16:00,5913.56
8/07/2014 17:00,6240.9
8/07/2014 18:00,6936.92
8/07/2014 19:00,6764.99
8/07/2014 20:00,6429.25
8/07/2014 21:00,6096.92
8/07/2014 22:00,5693.81
8/07/2014 23:00,5241.19
9/07/2014 0:00,5611.51
9/07/2014 1:00,5111.89
9/07/2014 2:00,4710.91
9/07/2014 3:00,4389.9
9/07/2014 4:00,4224.64
9/07/2014 5:00,4421.59
9/07/2014 6:00,4845.7
9/07/2014 7:00,5739.37
9/07/2014 8:00,6388.57
9/07/2014 9:00,6699.78
9/07/2014 10:00,6772.34
9/07/2014 11:00,6652.3
9/07/2014 12:00,6726.19
9/07/2014 13:00,6715.84
9/07/2014 14:00,6783.05
9/07/2014 15:00,6812.36
9/07/2014 16:00,6943.86
9/07/2014 17:00,7108.58
9/07/2014 18:00,7421.52
9/07/2014 19:00,7172.07
9/07/2014 20:00,6869.72
9/07/2014 21:00,6519.97
9/07/2014 22:00,6082.23
9/07/2014 23:00,5691.28
10/07/2014 0:00,5899.52
10/07/2014 1:00,5344.49
10/07/2014 2:00,4884.65
10/07/2014 3:00,4553.52
10/07/2014 4:00,4408.87
10/07/2014 5:00,4428.6
10/07/2014 6:00,4898.6
10/07/2014 7:00,5800.72
10/07/2014 8:00,6428.13
10/07/2014 9:00,6779.91
10/07/2014 10:00,6758.77
10/07/2014 11:00,6601.23
10/07/2014 12:00,6485.07
10/07/2014 13:00,6300.87
10/07/2014 14:00,6347.49
10/07/2014 15:00,6285.68
10/07/2014 16:00,6356.73
10/07/2014 17:00,6654.87
10/07/2014 18:00,7143.25
10/07/2014 19:00,7069.09
10/07/2014 20:00,6758.69
10/07/2014 21:00,5967.33
10/07/2014 22:00,5973.2
10/07/2014 23:00,5658.83
11/07/2014 0:00,5919.25
11/07/2014 1:00,5420.76
11/07/2014 2:00,4948.88
11/07/2014 3:00,4620.8
11/07/2014 4:00,4499.01
11/07/2014 5:00,4533.32
11/07/2014 6:00,4930.79
11/07/2014 7:00,5816.67
11/07/2014 8:00,6412.39
11/07/2014 9:00,6720.27
11/07/2014 10:00,6641.57
11/07/2014 11:00,6506.45
11/07/2014 12:00,6255.18
11/07/2014 13:00,6015.19
11/07/2014 14:00,6014.51
11/07/2014 15:00,6005.67
11/07/2014 16:00,6098.45
11/07/2014 17:00,6229.22
11/07/2014 18:00,6777.88
11/07/2014 19:00,6613.12
11/07/2014 20:00,6386.33
11/07/2014 21:00,6146
11/07/2014 22:00,5751.58
11/07/2014 23:00,5550.77
12/07/2014 0:00,5848.02
12/07/2014 1:00,5233.06
12/07/2014 2:00,4814.71
12/07/2014 3:00,4511.85
12/07/2014 4:00,4331.33
12/07/2014 5:00,4299.37
12/07/2014 6:00,4462.68
12/07/2014 7:00,4865.49
12/07/2014 8:00,5168.9
12/07/2014 9:00,5690.87
12/07/2014 10:00,5854.24
12/07/2014 11:00,5641.64
12/07/2014 12:00,5521.3
12/07/2014 13:00,5440.23
12/07/2014 14:00,5522.79
12/07/2014 15:00,5533.13
12/07/2014 16:00,5688.89
12/07/2014 17:00,5919.96
12/07/2014 18:00,6563.77
12/07/2014 19:00,6515.78
12/07/2014 20:00,6265.39
12/07/2014 21:00,6075.23
12/07/2014 22:00,5791.89
12/07/2014 23:00,5681.27
13/07/2014 0:00,6024.79
13/07/2014 1:00,5518.55
13/07/2014 2:00,5050.46
13/07/2014 3:00,4658.67
13/07/2014 4:00,4521.39
13/07/2014 5:00,4365.06
13/07/2014 6:00,4532.46
13/07/2014 7:00,4834.78
13/07/2014 8:00,5043.72
13/07/2014 9:00,5401.17
13/07/2014 10:00,5491.47
13/07/2014 11:00,5341.04
13/07/2014 12:00,5272.28
13/07/2014 13:00,5180.05
13/07/2014 14:00,5368.24
13/07/2014 15:00,5428
13/07/2014 16:00,5658.89
13/07/2014 17:00,6014.51
13/07/2014 18:00,6670.53
13/07/2014 19:00,6680.3
13/07/2014 20:00,6419.76
13/07/2014 21:00,6154.22
13/07/2014 22:00,5717.91
13/07/2014 23:00,5477.37
14/07/2014 0:00,5801.57
14/07/2014 1:00,5404.6
14/07/2014 2:00,5093.47
14/07/2014 3:00,4809.31
14/07/2014 4:00,4615.89
14/07/2014 5:00,4387.95
14/07/2014 6:00,5244.37
14/07/2014 7:00,6221.3
14/07/2014 8:00,6912.44
14/07/2014 9:00,7058.89
14/07/2014 10:00,6979.65
14/07/2014 11:00,6813.94
14/07/2014 12:00,6698.93
14/07/2014 13:00,6600.47
14/07/2014 14:00,6554.77
14/07/2014 15:00,6597.04
14/07/2014 16:00,6677.09
14/07/2014 17:00,7001.78
14/07/2014 18:00,7490.46
14/07/2014 19:00,7291.25
14/07/2014 20:00,7014.73
14/07/2014 21:00,6583.34
14/07/2014 22:00,6099.13
14/07/2014 23:00,5689.46
15/07/2014 0:00,5889.67
15/07/2014 1:00,5334.76
15/07/2014 2:00,4943.44
15/07/2014 3:00,4550.69
15/07/2014 4:00,4472
15/07/2014 5:00,4506.91
15/07/2014 6:00,4947.62
15/07/2014 7:00,5978.28
15/07/2014 8:00,6704.35
15/07/2014 9:00,6923.76
15/07/2014 10:00,6924.54
15/07/2014 11:00,6824.34
15/07/2014 12:00,6841.49
15/07/2014 13:00,6772.72
15/07/2014 14:00,6873.47
15/07/2014 15:00,6785.76
15/07/2014 16:00,6806.03
15/07/2014 17:00,6972.08
15/07/2014 18:00,7454.51
15/07/2014 19:00,7211.16
15/07/2014 20:00,6817.9
15/07/2014 21:00,6435.63
15/07/2014 22:00,5953.16
15/07/2014 23:00,5484.34
16/07/2014 0:00,5853.03
16/07/2014 1:00,5319.88
16/07/2014 2:00,4895.06
16/07/2014 3:00,4617.22
16/07/2014 4:00,4518.26
16/07/2014 5:00,4541
16/07/2014 6:00,4945.68
16/07/2014 7:00,6028.1
16/07/2014 8:00,6810.48
16/07/2014 9:00,6966.02
16/07/2014 10:00,6798.08
16/07/2014 11:00,6456.26
16/07/2014 12:00,6209.31
16/07/2014 13:00,6138.73
16/07/2014 14:00,6089.69
16/07/2014 15:00,6007.64
16/07/2014 16:00,5954.98
16/07/2014 17:00,6235.78
16/07/2014 18:00,6901.2
16/07/2014 19:00,6921.31
16/07/2014 20:00,6686.94
16/07/2014 21:00,6358.19
16/07/2014 22:00,5796.22
16/07/2014 23:00,5341.88
17/07/2014 0:00,5607.41
17/07/2014 1:00,5071.31
17/07/2014 2:00,4674.13
17/07/2014 3:00,4404.76
17/07/2014 4:00,4243.61
17/07/2014 5:00,4348.96
17/07/2014 6:00,4839.88
17/07/2014 7:00,5875.43
17/07/2014 8:00,6557.43
17/07/2014 9:00,6665.59
17/07/2014 10:00,6583.95
17/07/2014 11:00,6446.01
17/07/2014 12:00,6324.61
17/07/2014 13:00,6203.3
17/07/2014 14:00,6370.8
17/07/2014 15:00,6276.34
17/07/2014 16:00,6378.05
17/07/2014 17:00,6697.68
17/07/2014 18:00,7277.99
17/07/2014 19:00,7293.54
17/07/2014 20:00,6999.45
17/07/2014 21:00,6644.3
17/07/2014 22:00,6173.04
17/07/2014 23:00,5689.81
18/07/2014 0:00,5910.03
18/07/2014 1:00,5411.1
18/07/2014 2:00,4975.62
18/07/2014 3:00,4637.05
18/07/2014 4:00,4474.35
18/07/2014 5:00,4540.34
18/07/2014 6:00,4929.33
18/07/2014 7:00,5995.26
18/07/2014 8:00,6753.22
18/07/2014 9:00,6781.9
18/07/2014 10:00,6609.11
18/07/2014 11:00,6340.08
18/07/2014 12:00,6216.2
18/07/2014 13:00,6115.97
18/07/2014 14:00,6156.12
18/07/2014 15:00,6032.11
18/07/2014 16:00,6122.21
18/07/2014 17:00,6420.14
18/07/2014 18:00,6993.29
18/07/2014 19:00,7003.61
18/07/2014 20:00,6673.31
18/07/2014 21:00,6436.51
18/07/2014 22:00,5960.34
18/07/2014 23:00,5595.24
19/07/2014 0:00,5903.26
19/07/2014 1:00,5333.9
19/07/2014 2:00,4924.31
19/07/2014 3:00,4564.9
19/07/2014 4:00,4392.2
19/07/2014 5:00,4370.08
19/07/2014 6:00,4484.73
19/07/2014 7:00,4870.12
19/07/2014 8:00,5228.02
19/07/2014 9:00,5761.97
19/07/2014 10:00,5806.01
19/07/2014 11:00,5700.3
19/07/2014 12:00,5566.11
19/07/2014 13:00,5483.07
19/07/2014 14:00,5507.31
19/07/2014 15:00,5490.82
19/07/2014 16:00,5645.57
19/07/2014 17:00,5927.5
19/07/2014 18:00,6493.46
19/07/2014 19:00,6401.36
19/07/2014 20:00,6148.96
19/07/2014 21:00,5917.07
19/07/2014 22:00,5589.21
19/07/2014 23:00,5469.63
20/07/2014 0:00,5796.67
20/07/2014 1:00,5364.39
20/07/2014 2:00,4950.4
20/07/2014 3:00,4618.09
20/07/2014 4:00,4465.76
20/07/2014 5:00,4367.43
20/07/2014 6:00,4450.93
20/07/2014 7:00,4717.88
20/07/2014 8:00,4941.32
20/07/2014 9:00,5318.46
20/07/2014 10:00,5473.19
20/07/2014 11:00,5443.49
20/07/2014 12:00,5317.35
20/07/2014 13:00,5252.26
20/07/2014 14:00,5208.37
20/07/2014 15:00,5243.08
20/07/2014 16:00,5372.75
20/07/2014 17:00,5726.9
20/07/2014 18:00,6456.69
20/07/2014 19:00,6559.14
20/07/2014 20:00,6374.22
20/07/2014 21:00,6155.21
20/07/2014 22:00,5751.02
20/07/2014 23:00,5483.96
21/07/2014 0:00,5758.75
21/07/2014 1:00,5333.55
21/07/2014 2:00,4944.43
21/07/2014 3:00,4680.77
21/07/2014 4:00,4604.29
21/07/2014 5:00,4667.49
21/07/2014 6:00,5083.16
21/07/2014 7:00,6083.49
21/07/2014 8:00,6893.86
21/07/2014 9:00,7092.04
21/07/2014 10:00,7043.7
21/07/2014 11:00,6877.25
21/07/2014 12:00,6561.8
21/07/2014 13:00,6387.98
21/07/2014 14:00,6350.79
21/07/2014 15:00,6306.18
21/07/2014 16:00,6303.99
21/07/2014 17:00,6656.65
21/07/2014 18:00,7323.86
21/07/2014 19:00,7337.19
21/07/2014 20:00,6999.65
21/07/2014 21:00,6645.18
21/07/2014 22:00,6160.81
21/07/2014 23:00,5728.18
22/07/2014 0:00,5982.23
22/07/2014 1:00,5491.68
22/07/2014 2:00,5117.56
22/07/2014 3:00,4815.75
22/07/2014 4:00,4683.31
22/07/2014 5:00,4705.91
22/07/2014 6:00,5161.77
22/07/2014 7:00,6272.37
22/07/2014 8:00,7053.1
22/07/2014 9:00,7261.05
22/07/2014 10:00,7208.57
22/07/2014 11:00,7000.54
22/07/2014 12:00,6799.4
22/07/2014 13:00,6605.46
22/07/2014 14:00,6521.63
22/07/2014 15:00,6302.27
22/07/2014 16:00,6272.88
22/07/2014 17:00,6580.38
22/07/2014 18:00,7387.73
22/07/2014 19:00,7515.37
22/07/2014 20:00,7216.15
22/07/2014 21:00,6887.23
22/07/2014 22:00,6274.53
22/07/2014 23:00,5830.65
23/07/2014 0:00,6052.3
23/07/2014 1:00,5525.16
23/07/2014 2:00,5116.34
23/07/2014 3:00,4810.74
23/07/2014 4:00,4718.39
23/07/2014 5:00,4735.96
23/07/2014 6:00,5196.84
23/07/2014 7:00,6330.03
23/07/2014 8:00,7055.45
23/07/2014 9:00,7145.87
23/07/2014 10:00,7069.75
23/07/2014 11:00,6717.87
23/07/2014 12:00,6490.78
23/07/2014 13:00,6438.99
23/07/2014 14:00,6465.68
23/07/2014 15:00,6373.65
23/07/2014 16:00,6346.32
23/07/2014 17:00,6643.37
23/07/2014 18:00,7270.13
23/07/2014 19:00,7183.18
23/07/2014 20:00,6876.71
23/07/2014 21:00,6555.67
23/07/2014 22:00,6089.21
23/07/2014 23:00,5627.78
24/07/2014 0:00,5879.15
24/07/2014 1:00,5426.55
24/07/2014 2:00,5015.29
24/07/2014 3:00,4767.92
24/07/2014 4:00,4617.09
24/07/2014 5:00,4625.5
24/07/2014 6:00,5086.21
24/07/2014 7:00,6095.95
24/07/2014 8:00,6782.69
24/07/2014 9:00,6958.67
24/07/2014 10:00,6929.9
24/07/2014 11:00,6828.06
24/07/2014 12:00,6689.36
24/07/2014 13:00,6526.61
24/07/2014 14:00,6437.9
24/07/2014 15:00,6317.94
24/07/2014 16:00,6372.31
24/07/2014 17:00,6565.13
24/07/2014 18:00,7046
24/07/2014 19:00,7038.79
24/07/2014 20:00,6682.11
24/07/2014 21:00,6386.69
24/07/2014 22:00,5900.11
24/07/2014 23:00,5582.68
25/07/2014 0:00,5801.59
25/07/2014 1:00,5314.48
25/07/2014 2:00,4879.48
25/07/2014 3:00,4538.68
25/07/2014 4:00,4391.08
25/07/2014 5:00,4447.33
25/07/2014 6:00,4866.11
25/07/2014 7:00,5856.81
25/07/2014 8:00,6462.27
25/07/2014 9:00,6545.45
25/07/2014 10:00,6344.15
25/07/2014 11:00,6203.7
25/07/2014 12:00,6133.53
25/07/2014 13:00,5998.84
25/07/2014 14:00,6015.1
25/07/2014 15:00,6028.06
25/07/2014 16:00,6057.17
25/07/2014 17:00,6236.39
25/07/2014 18:00,6712.1
25/07/2014 19:00,6672.58
25/07/2014 20:00,6391.62
25/07/2014 21:00,6137.15
25/07/2014 22:00,5693
25/07/2014 23:00,5521.41
26/07/2014 0:00,5824.28
26/07/2014 1:00,5215.39
26/07/2014 2:00,4742.58
26/07/2014 3:00,4394.44
26/07/2014 4:00,4259.46
26/07/2014 5:00,4244.92
26/07/2014 6:00,4357.33
26/07/2014 7:00,4693.7
26/07/2014 8:00,5037.53
26/07/2014 9:00,5479.51
26/07/2014 10:00,5568.28
26/07/2014 11:00,5432.11
26/07/2014 12:00,5417.19
26/07/2014 13:00,5391.21
26/07/2014 14:00,5430.48
26/07/2014 15:00,5398.13
26/07/2014 16:00,5520.59
26/07/2014 17:00,5846.2
26/07/2014 18:00,6293.51
26/07/2014 19:00,6237.51
26/07/2014 20:00,5911.89
26/07/2014 21:00,5646.48
26/07/2014 22:00,5357.1
26/07/2014 23:00,5240.13
27/07/2014 0:00,5599.94
27/07/2014 1:00,5118.92
27/07/2014 2:00,4685.34
27/07/2014 3:00,4337.41
27/07/2014 4:00,4169.19
27/07/2014 5:00,4059.57
27/07/2014 6:00,4131.4
27/07/2014 7:00,4355.59
27/07/2014 8:00,4424.68
27/07/2014 9:00,4775.57
27/07/2014 10:00,4829.13
27/07/2014 11:00,4742.04
27/07/2014 12:00,4623.29
27/07/2014 13:00,4472.1
27/07/2014 14:00,4576.17
27/07/2014 15:00,4690.09
27/07/2014 16:00,4886.1
27/07/2014 17:00,5170.54
27/07/2014 18:00,5784.47
27/07/2014 19:00,5956.31
27/07/2014 20:00,5713.12
27/07/2014 21:00,5403.25
27/07/2014 22:00,5085
27/07/2014 23:00,4816.13
28/07/2014 0:00,5130.91
28/07/2014 1:00,4779.67
28/07/2014 2:00,4426.19
28/07/2014 3:00,4128.62
28/07/2014 4:00,4002.76
28/07/2014 5:00,4102.15
28/07/2014 6:00,4570.97
28/07/2014 7:00,5712.1
28/07/2014 8:00,6373.26
28/07/2014 9:00,6443.93
28/07/2014 10:00,6215.99
28/07/2014 11:00,5893.15
28/07/2014 12:00,5724.07
28/07/2014 13:00,5581.4
28/07/2014 14:00,5559.06
28/07/2014 15:00,5449.06
28/07/2014 16:00,5514.03
28/07/2014 17:00,5848.76
28/07/2014 18:00,6524.73
28/07/2014 19:00,6615.71
28/07/2014 20:00,6275.82
28/07/2014 21:00,6013.73
28/07/2014 22:00,5564.96
28/07/2014 23:00,5185.54
29/07/2014 0:00,5332.3
29/07/2014 1:00,4920.73
29/07/2014 2:00,4448.26
29/07/2014 3:00,4102.06
29/07/2014 4:00,4026.25
29/07/2014 5:00,4117.94
29/07/2014 6:00,4541.08
29/07/2014 7:00,5596.33
29/07/2014 8:00,6298.27
29/07/2014 9:00,6332.03
29/07/2014 10:00,6154.22
29/07/2014 11:00,5942.17
29/07/2014 12:00,5936.47
29/07/2014 13:00,5966.8
29/07/2014 14:00,6035.65
29/07/2014 15:00,6034.76
29/07/2014 16:00,6085.47
29/07/2014 17:00,6398.26
29/07/2014 18:00,6784.88
29/07/2014 19:00,6657.13
29/07/2014 20:00,6282.44
29/07/2014 21:00,5858.7
29/07/2014 22:00,5424.08
29/07/2014 23:00,5081.68
30/07/2014 0:00,5358.69
30/07/2014 1:00,4859.88
30/07/2014 2:00,4538.94
30/07/2014 3:00,4247.23
30/07/2014 4:00,4057.4
30/07/2014 5:00,4164.84
30/07/2014 6:00,4563.58
30/07/2014 7:00,5582.02
30/07/2014 8:00,6217.02
30/07/2014 9:00,6172.96
30/07/2014 10:00,5980.83
30/07/2014 11:00,5828.97
30/07/2014 12:00,5772.02
30/07/2014 13:00,5698.32
30/07/2014 14:00,5761.27
30/07/2014 15:00,5725.9
30/07/2014 16:00,5677.77
30/07/2014 17:00,5900.89
30/07/2014 18:00,6405.54
30/07/2014 19:00,6367.41
30/07/2014 20:00,6070.38
30/07/2014 21:00,5883.47
30/07/2014 22:00,5352.17
30/07/2014 23:00,5007.27
31/07/2014 0:00,5318.36
31/07/2014 1:00,4772.33
31/07/2014 2:00,4356.78
31/07/2014 3:00,4048.8
31/07/2014 4:00,3928.54
31/07/2014 5:00,4004.17
31/07/2014 6:00,4424.32
31/07/2014 7:00,5433.91
31/07/2014 8:00,5961.16
31/07/2014 9:00,5904.09
31/07/2014 10:00,5674.46
31/07/2014 11:00,5418.23
31/07/2014 12:00,5443.98
31/07/2014 13:00,5403.88
31/07/2014 14:00,5387.82
31/07/2014 15:00,5456.83
31/07/2014 16:00,5880.37
31/07/2014 17:00,6398.58
31/07/2014 18:00,6974.9
31/07/2014 19:00,6865.46
31/07/2014 20:00,6418.7
31/07/2014 21:00,6111.98
31/07/2014 22:00,5711.36
31/07/2014 23:00,5311.17
1/08/2014 0:00,5563.28
