month,Oven (kWh),Gas Duct (kWh),Inst Gas (kWh),Water pump (kWh),CW (kWh),RF (kWh),DW (kWh),MW (kWh),Toaster (kWh),Lights (kWh),Residual (kWh),Other (kWh)
1,2432.43,3413.94,640.12,853.48,1408.25,4352.78,1237.5,853.5,3371.3,1963,597.5,1877.6
2,2901.85,5547.65,682.79,682.79,1152.22,3584.6,1408.3,853.5,3584.6,1664.3,3968.7,1365.6
3,3243.24,5248.94,640.11,725.46,1536.25,3584.7,1280.2,1365.6,3285.9,1536.3,1835,1749.6
4,3669.99,4779.51,597.44,725.46,1194.9,3584.6,1194.9,853.5,2987.2,1152.2,853.5,1322.9
5,2005.69,3072.55,597.44,682.78,1066.86,3413.98,938.8,384.1,1920.3,640.1,554.8,938.8
6,2261.74,2091.03,597.44,1024.19,1792.31,4907.59,1109.5,341.4,2517.8,810.8,810.8,1450.9
7,1322.9,853.49,682.79,682.78,597.44,4736.85,853.48,213.37,1963,640.1,640.1,981.6
8,768.137,469.413,682.79,426.74,512.1,4907.53,554.77,213.37,1066.86,384.07,597.42,853.5
9,554.765,426.743,640.112,682.79,512.09,5248.93,469.42,85.35,682.79,213.37,597.44,896.2
10,896.159,426.741,682.79,597.44,512.09,4864.87,768.13,170.7,1280.18,469.5,725.4,1066.9
11,1493.6,469.42,682.78,725.47,896.16,5120.91,810.76,256.1,1749.6,938.9,938.8,1408.3
12,426.743,682.787,725.46,682.79,1024.18,4864.87,1024.18,384.07,2219.02,1194.9,469.4,1493.6
